extern void __VERIFIER_error(void);
extern void __VERIFIER_assume(int);
void __VERIFIER_assert(int cond) {
  if (!(cond != 0)) {
    ERROR: __VERIFIER_error();
  }
  return;
}
int __VERIFIER_nondet_int();
int main() {
  int idBitLength, material_length, nlen;
  int j, k;
  nlen = __VERIFIER_nondet_int();
  idBitLength = __VERIFIER_nondet_int();
  material_length = __VERIFIER_nondet_int();
    if (!( nlen == idBitLength / 32 )) 
      return 0;
  for (j = 0; (j < idBitLength / 8) && (j < material_length); j++) {
    if (!(0 <= j)) {
  __VERIFIER_error();
}
    if (!(j < material_length )) {
  __VERIFIER_error();
}
    if (!(0 <= j/4 )) {
  __VERIFIER_error();
}
    if (!(j/4 < nlen)) {
  __VERIFIER_error();
}
  }
  return 0;
}
