extern void __VERIFIER_error() __attribute__ ((__noreturn__));
extern unsigned int __VERIFIER_nondet_uint(void);
void __VERIFIER_assert(int cond) {
  if (!(cond != 0)) {
    ERROR: __VERIFIER_error();
  }
  return;
}
int main(void) {
  unsigned int x = __VERIFIER_nondet_uint();
  unsigned int y = x + 1;
  while (x < 1024) {
    x++;
    y++;
  }
  if (!(x == y)) {
  __VERIFIER_error();
}
}
