extern void __VERIFIER_error() __attribute__ ((__noreturn__));
void __VERIFIER_assert(int cond) {
  if (!(cond != 0)) {
    ERROR: __VERIFIER_error();
  }
  return;
}
int main(void) {
  unsigned int x = 0;
  unsigned short N;
  while (x < N) {
    x += 2;
  }
  if (!(x % 2)) {
  __VERIFIER_error();
}
}
