<tr>
<td>sharp694859737207397781.cnf</td>
<td>2754</td>
<td>12650</td>
<td>226</td>
<td>0.100614</td>
<td>200</td>
</tr>
<tr>
<td>sharp4490358572551377746.cnf</td>
<td>17</td>
<td>26</td>
<td>14</td>
<td>0.007377</td>
<td>255</td>
</tr>
<tr>
<td>sharp4829337318648089775.cnf</td>
<td>16</td>
<td>16</td>
<td>8</td>
<td>0.004166</td>
<td>256</td>
</tr>
