extern void __VERIFIER_error(void);
extern void __VERIFIER_assume(int);
void __VERIFIER_assert(int cond) {
  if (!(cond != 0)) {
      ERROR: __VERIFIER_error();
  }
  return;
}
int __VERIFIER_nondet_int();
int main() {
    int x,y,z,w;
    x = y = z = w = 0;
    int __cond = __VERIFIER_nondet_int();
    while (__cond && y < 10000) {
      __cond = __VERIFIER_nondet_int();
      int __if_cond = __VERIFIER_nondet_int();
      int __elseif_cond = __VERIFIER_nondet_int();
 if (__if_cond != 0) {
     x = x + 1;
     y = y + 100;
 } else if (__elseif_cond != 0) {
     if (x >= 4) {
  x = x + 1;
  y = y + 1;
     }
 } else if (y > 10*w && z >= 100*x) {
     y = -y;
 }
 w = w + 1;
 z = z + 10;
    }
    if (!(x >= 4 && y <= 2)) {
  __VERIFIER_error();
}
    return 0;
}
