extern void __VERIFIER_error() __attribute__ ((__noreturn__));

void __VERIFIER_assert(int cond) {
  if (!(cond != 0)) {
    ERROR: __VERIFIER_error();
  }
  return;
}
int __VERIFIER_nondet_int();

int main()
{
  unsigned int SIZE=1;
  unsigned int j,k;
  int array[SIZE], menor;

  menor = __VERIFIER_nondet_int();

  for(j=0;j<SIZE;j++) {
       array[j] = __VERIFIER_nondet_int();

       if(array[j]<=menor)
          menor = array[j];
    }

    if (!(array[0]>menor)) {
  __VERIFIER_error();
}

    return 0;
}
