extern void __VERIFIER_error() __attribute__ ((__noreturn__));

void __VERIFIER_assert(int cond) {
  if (!(cond != 0)) {
    ERROR: __VERIFIER_error();
  }
  return;
}

_Bool __VERIFIER_nondet_bool();

int main(){
   int a[5];
   int len=0;
   _Bool c=__VERIFIER_nondet_bool();
   int i;


   while (c != 0){

      if (len==4)
         len =0;

      a[len]=0;

      len++;
   }
   if (!(len==5)) {
  __VERIFIER_error();
}
   return 1;


}
