extern void __VERIFIER_error() __attribute__ ((__noreturn__));

void __VERIFIER_assert(int cond) {
  if (!(cond != 0)) {
    ERROR: __VERIFIER_error();
  }
  return;
}

extern unsigned int __VERIFIER_nondet_uint();
int main() {
  int i, j=10, n=__VERIFIER_nondet_uint(), sn=0;
  for(i=1; i<=n; i++) {
    if (i<j)
    sn = sn + (2);
    j--;
  }
  if (!(sn==n*(2) || sn == 0)) {
  __VERIFIER_error();
}
}
