extern void __VERIFIER_error() __attribute__ ((__noreturn__));
void __VERIFIER_assert(int cond) {
  if (!(cond != 0)) {
    ERROR: __VERIFIER_error();
  }
  return;
}
extern unsigned int __VERIFIER_nondet_uint();
int main() {
  int sn=0;
  unsigned int loop1=__VERIFIER_nondet_uint(), n1=__VERIFIER_nondet_uint();
  unsigned int x=0;
  while(1){
      if (x<10) {
          sn = sn + (2);
      }
      x++;
      if (!(sn==x*(2) || sn == 0)) {
  __VERIFIER_error();
}
  }
}
