extern void __VERIFIER_error() __attribute__ ((__noreturn__));

void __VERIFIER_assert(int cond) {
  if (!(cond != 0)) {
    ERROR: __VERIFIER_error();
  }
  return;
}


int main() {
  int i, sn=0;
  for(i=1; i<=8; i++) {
    if (i<4)
    sn = sn + (2);
  }
  if (!(sn==8*(2) || sn == 0)) {
  __VERIFIER_error();
}
}
