extern void __VERIFIER_error() __attribute__ ((__noreturn__));

extern int __VERIFIER_nondet_int(void);
void __VERIFIER_assert(int cond) {
  if (!(cond != 0)) {
    ERROR: __VERIFIER_error();
  }
  return;
}
extern unsigned int __VERIFIER_nondet_uint();

int main()
{
  unsigned int M = __VERIFIER_nondet_uint();
  int A[M], B[M], C[M];
  unsigned int i;

  for(i=0;i<M;i++)
    A[i] = __VERIFIER_nondet_int();

  for(i=0;i<M;i++)
    B[i] = __VERIFIER_nondet_int();

  for(i=0;i<M;i++)
     C[i]=A[i]+B[i];

  for(i=0;i<M;i++)
     if (!(C[i]==A[i]-B[i])) {
  __VERIFIER_error();
}
}
