extern void __VERIFIER_error() __attribute__ ((__noreturn__));
void __VERIFIER_assert(int cond) {
  if (!(cond != 0)) {
    ERROR: __VERIFIER_error();
  }
  return;
}
extern unsigned int __VERIFIER_nondet_uint();
extern _Bool __VERIFIER_nondet_bool();
int main()
{
  unsigned int x1=__VERIFIER_nondet_uint(), x2=__VERIFIER_nondet_uint(), x3=__VERIFIER_nondet_uint();
  unsigned int d1=1, d2=1, d3=1;
  _Bool c1=__VERIFIER_nondet_bool(), c2=__VERIFIER_nondet_bool();
  while(x1>0 && x2>0 && x3>0)
  {
    if (c1 != 0) 
      x1=x1-d1;
    else if (c2 != 0) 
      x2=x2-d2;
    else 
      x3=x3-d3;
    c1=__VERIFIER_nondet_bool();
    c2=__VERIFIER_nondet_bool();
  }
  if (!(x1==0 && x2==0 && x3==0)) {
  __VERIFIER_error();
}
  return 0;
}
